{
    "name": "GsbBundle\\Entity\\LigneFraisHorsForfait",
    "line": 14,
    "short_desc": "LigneFraisHorsForfait",
    "long_desc": "",
    "hint": null,
    "tags": {
        "ORM\\Table": [
            [
                "(name=\"ligne_frais_hors_forfait\")"
            ]
        ],
        "ORM\\Entity": [
            [
                "(repositoryClass=\"GsbBundle\\Repository\\LigneFraisHorsForfaitRepository\")"
            ]
        ]
    },
    "namespace": "GsbBundle\\Entity",
    "file": "..\/src\\GsbBundle\\Entity\\LigneFraisHorsForfait.php",
    "relative_file": null,
    "hash": "c8f3fe9fce46a02af480f978f62c854d38b5f758",
    "parent": null,
    "modifiers": "Stmt_Class",
    "is_trait": false,
    "is_interface": false,
    "aliases": {
        "ORM": "Doctrine\\ORM\\Mapping",
        "Assert": "Symfony\\Component\\Validator\\Constraints"
    },
    "errors": [],
    "interfaces": [],
    "traits": [],
    "properties": [],
    "methods": {
        "__construct": {
            "name": "__construct",
            "line": 66,
            "short_desc": "",
            "long_desc": "",
            "hint": null,
            "hint_desc": null,
            "tags": [],
            "modifiers": "1",
            "is_by_ref": "",
            "exceptions": [],
            "errors": [],
            "parameters": []
        },
        "getId": {
            "name": "getId",
            "line": 76,
            "short_desc": "Get id",
            "long_desc": "",
            "hint": [
                [
                    "int",
                    false
                ]
            ],
            "hint_desc": "",
            "tags": [],
            "modifiers": "1",
            "is_by_ref": "",
            "exceptions": [],
            "errors": [],
            "parameters": []
        },
        "setMois": {
            "name": "setMois",
            "line": 88,
            "short_desc": "Set mois",
            "long_desc": "",
            "hint": [
                [
                    "\\GsbBundle\\Entity\\LigneFraisHorsForfait",
                    false
                ]
            ],
            "hint_desc": "",
            "tags": [],
            "modifiers": "1",
            "is_by_ref": "",
            "exceptions": [],
            "errors": [],
            "parameters": {
                "mois": {
                    "name": "mois",
                    "line": 88,
                    "short_desc": "",
                    "long_desc": null,
                    "hint": [
                        [
                            "string",
                            false
                        ]
                    ],
                    "tags": [],
                    "modifiers": "",
                    "default": null,
                    "is_by_ref": false
                }
            }
        },
        "getMois": {
            "name": "getMois",
            "line": 100,
            "short_desc": "Get mois",
            "long_desc": "",
            "hint": [
                [
                    "string",
                    false
                ]
            ],
            "hint_desc": "",
            "tags": [],
            "modifiers": "1",
            "is_by_ref": "",
            "exceptions": [],
            "errors": [],
            "parameters": []
        },
        "setLibelle": {
            "name": "setLibelle",
            "line": 112,
            "short_desc": "Set libelle",
            "long_desc": "",
            "hint": [
                [
                    "\\GsbBundle\\Entity\\LigneFraisHorsForfait",
                    false
                ]
            ],
            "hint_desc": "",
            "tags": [],
            "modifiers": "1",
            "is_by_ref": "",
            "exceptions": [],
            "errors": [],
            "parameters": {
                "libelle": {
                    "name": "libelle",
                    "line": 112,
                    "short_desc": "",
                    "long_desc": null,
                    "hint": [
                        [
                            "string",
                            false
                        ]
                    ],
                    "tags": [],
                    "modifiers": "",
                    "default": null,
                    "is_by_ref": false
                }
            }
        },
        "getLibelle": {
            "name": "getLibelle",
            "line": 124,
            "short_desc": "Get libelle",
            "long_desc": "",
            "hint": [
                [
                    "string",
                    false
                ]
            ],
            "hint_desc": "",
            "tags": [],
            "modifiers": "1",
            "is_by_ref": "",
            "exceptions": [],
            "errors": [],
            "parameters": []
        },
        "setDate": {
            "name": "setDate",
            "line": 136,
            "short_desc": "Set date",
            "long_desc": "",
            "hint": [
                [
                    "\\GsbBundle\\Entity\\LigneFraisHorsForfait",
                    false
                ]
            ],
            "hint_desc": "",
            "tags": [],
            "modifiers": "1",
            "is_by_ref": "",
            "exceptions": [],
            "errors": [],
            "parameters": {
                "date": {
                    "name": "date",
                    "line": 136,
                    "short_desc": "",
                    "long_desc": null,
                    "hint": [
                        [
                            "\\DateTime",
                            false
                        ]
                    ],
                    "tags": [],
                    "modifiers": "",
                    "default": null,
                    "is_by_ref": false
                }
            }
        },
        "getDate": {
            "name": "getDate",
            "line": 148,
            "short_desc": "Get date",
            "long_desc": "",
            "hint": [
                [
                    "\\DateTime",
                    false
                ]
            ],
            "hint_desc": "",
            "tags": [],
            "modifiers": "1",
            "is_by_ref": "",
            "exceptions": [],
            "errors": [],
            "parameters": []
        },
        "setMontant": {
            "name": "setMontant",
            "line": 160,
            "short_desc": "Set montant",
            "long_desc": "",
            "hint": [
                [
                    "\\GsbBundle\\Entity\\LigneFraisHorsForfait",
                    false
                ]
            ],
            "hint_desc": "",
            "tags": [],
            "modifiers": "1",
            "is_by_ref": "",
            "exceptions": [],
            "errors": [],
            "parameters": {
                "montant": {
                    "name": "montant",
                    "line": 160,
                    "short_desc": "",
                    "long_desc": null,
                    "hint": [
                        [
                            "float",
                            false
                        ]
                    ],
                    "tags": [],
                    "modifiers": "",
                    "default": null,
                    "is_by_ref": false
                }
            }
        },
        "getMontant": {
            "name": "getMontant",
            "line": 172,
            "short_desc": "Get montant",
            "long_desc": "",
            "hint": [
                [
                    "float",
                    false
                ]
            ],
            "hint_desc": "",
            "tags": [],
            "modifiers": "1",
            "is_by_ref": "",
            "exceptions": [],
            "errors": [],
            "parameters": []
        },
        "setIdVisiteur": {
            "name": "setIdVisiteur",
            "line": 184,
            "short_desc": "Set idVisiteur",
            "long_desc": "",
            "hint": [
                [
                    "\\GsbBundle\\Entity\\LigneFraisHorsForfait",
                    false
                ]
            ],
            "hint_desc": "",
            "tags": [],
            "modifiers": "1",
            "is_by_ref": "",
            "exceptions": [],
            "errors": [],
            "parameters": {
                "idVisiteur": {
                    "name": "idVisiteur",
                    "line": 184,
                    "short_desc": "",
                    "long_desc": null,
                    "hint": [
                        [
                            "\\GsbBundle\\Entity\\User",
                            false
                        ]
                    ],
                    "tags": [],
                    "modifiers": "GsbBundle\\Entity\\User",
                    "default": "null",
                    "is_by_ref": false
                }
            }
        },
        "getIdVisiteur": {
            "name": "getIdVisiteur",
            "line": 196,
            "short_desc": "Get idVisiteur",
            "long_desc": "",
            "hint": [
                [
                    "\\GsbBundle\\Entity\\User",
                    false
                ]
            ],
            "hint_desc": "",
            "tags": [],
            "modifiers": "1",
            "is_by_ref": "",
            "exceptions": [],
            "errors": [],
            "parameters": []
        },
        "getRefuser": {
            "name": "getRefuser",
            "line": 204,
            "short_desc": "",
            "long_desc": "",
            "hint": [
                [
                    "boolean",
                    false
                ]
            ],
            "hint_desc": "",
            "tags": [],
            "modifiers": "1",
            "is_by_ref": "",
            "exceptions": [],
            "errors": [],
            "parameters": []
        },
        "setRefuser": {
            "name": "setRefuser",
            "line": 212,
            "short_desc": "",
            "long_desc": "",
            "hint": null,
            "hint_desc": null,
            "tags": [],
            "modifiers": "1",
            "is_by_ref": "",
            "exceptions": [],
            "errors": [],
            "parameters": {
                "refuser": {
                    "name": "refuser",
                    "line": 212,
                    "short_desc": "",
                    "long_desc": null,
                    "hint": [
                        [
                            "boolean",
                            false
                        ]
                    ],
                    "tags": [],
                    "modifiers": "",
                    "default": null,
                    "is_by_ref": false
                }
            }
        }
    },
    "constants": []
}